<?xml version="1.0" encoding="utf-8"?>
<!-- Generator: Adobe Illustrator 22.1.0, SVG Export Plug-In . SVG Version: 6.00 Build 0)  -->
<svg version="1.1" id="Calque_1" xmlns="http://www.w3.org/2000/svg" xmlns:xlink="http://www.w3.org/1999/xlink" x="0px" y="0px"
	 viewBox="0 0 24 24" style="enable-background:new 0 0 24 24;" xml:space="preserve">
<path d="M11.3,16l-1.1-1.1c-0.2-0.2-0.2-0.5,0-0.7c0.2-0.2,0.5-0.2,0.7,0l2,2c0.2,0.2,0.2,0.5,0,0.7l-2,2c-0.2,0.2-0.5,0.2-0.7,0
	c-0.2-0.2-0.2-0.5,0-0.7l1.2-1.2c-0.9,0-1.8-0.1-2.7-0.3c0.7,2.6,2,4.3,3.4,4.3c2,0,3.8-3.6,4-8.3l-1.1,1.1c-0.2,0.2-0.5,0.2-0.7,0
	c-0.2-0.2-0.2-0.5,0-0.7l2-2c0.2-0.2,0.5-0.2,0.7,0l2,2c0.2,0.2,0.2,0.5,0,0.7c-0.2,0.2-0.5,0.2-0.7,0L17,12.7
	c-0.2,5.2-2.2,9.3-5,9.3c-2,0-3.7-2.3-4.5-5.5C4.3,15.7,2,14,2,12s2.3-3.7,5.5-4.5C8.3,4.3,10,2,12,2c1.5,0,2.8,1.2,3.7,3.3
	c0.1,0.3,0,0.5-0.3,0.7s-0.5,0-0.7-0.3C14.1,4,13,3,12,3c-1.4,0-2.7,1.7-3.4,4.3C9.7,7.1,10.8,7,12,7c5.5,0,10,2.1,10,5
	c0,1.5-1.2,2.8-3.3,3.7c-0.3,0.1-0.5,0-0.7-0.3s0-0.5,0.3-0.7C20,14.1,21,13,21,12c0-2.1-4-4-9-4c-1.3,0-2.5,0.1-3.6,0.4
	C8.1,9.5,8,10.7,8,12s0.1,2.5,0.4,3.6C9.3,15.8,10.2,15.9,11.3,16z M7.3,8.6C4.7,9.3,3,10.6,3,12s1.7,2.7,4.3,3.4
	C7.1,14.3,7,13.2,7,12S7.1,9.7,7.3,8.6L7.3,8.6z"/>
</svg>
